<svg xmlns="http://www.w3.org/2000/svg" width="235" height="43" fill="none">
  <defs/>
  <path fill="#541594" d="M231.575 12.7259c1.857 0 3.363-1.5056 3.363-3.36294C234.938 7.50565 233.432 6 231.575 6s-3.363 1.50565-3.363 3.36296c0 1.85734 1.506 3.36294 3.363 3.36294zM73.9998 11.344v3.836h-8.008v4.144h5.992v3.724h-5.992V31h-4.788V11.344h12.796zm7.3045 6.636c.56-.8587 1.26-1.5307 2.1-2.016.84-.504 1.7733-.756 2.8-.756v5.068h-1.316c-1.1947 0-2.0907.2613-2.688.784-.5974.504-.896 1.4-.896 2.688V31h-4.788V15.376h4.788v2.604zm14.3005 13.244c-1.5306 0-2.912-.3267-4.144-.98-1.2133-.6533-2.1746-1.5867-2.884-2.8-.6906-1.2133-1.036-2.632-1.036-4.256 0-1.6053.3547-3.0147 1.064-4.228.7094-1.232 1.68-2.1747 2.912-2.828 1.232-.6533 2.6134-.98 4.144-.98 1.5307 0 2.912.3267 4.144.98 1.2322.6533 2.2032 1.596 2.9122 2.828.709 1.2133 1.064 2.6227 1.064 4.228 0 1.6053-.364 3.024-1.092 4.256-.709 1.2133-1.689 2.1467-2.9402 2.8-1.232.6533-2.6133.98-4.144.98zm0-4.144c.9147 0 1.6894-.336 2.324-1.008.6534-.672.98-1.6333.98-2.884s-.3173-2.212-.952-2.884c-.616-.672-1.3813-1.008-2.296-1.008-.9333 0-1.708.336-2.324 1.008-.616.6533-.924 1.6147-.924 2.884 0 1.2507.2987 2.212.896 2.884.616.672 1.3814 1.008 2.296 1.008zm20.2362-11.872c1.829 0 3.285.5973 4.368 1.792 1.101 1.176 1.652 2.8 1.652 4.872V31h-4.76v-8.484c0-1.0453-.271-1.8573-.812-2.436s-1.269-.868-2.184-.868c-.915 0-1.643.2893-2.184.868-.541.5787-.812 1.3907-.812 2.436V31h-4.788V15.376h4.788v2.072c.485-.6907 1.139-1.232 1.96-1.624.821-.4107 1.745-.616 2.772-.616zm18.055 11.732V31h-2.436c-1.736 0-3.089-.42-4.06-1.26-.971-.8587-1.456-2.2493-1.456-4.172v-6.216h-1.904v-3.976h1.904v-3.808h4.788v3.808h3.136v3.976h-3.136v6.272c0 .4667.112.8027.336 1.008.224.2053.597.308 1.12.308h1.708zm7.455-11.76v3.976h6.412v3.696h-6.412v4.312h7.252V31h-12.04V11.344h12.04v3.836h-7.252zm15.149 2.8c.56-.8587 1.26-1.5307 2.1-2.016.84-.504 1.773-.756 2.8-.756v5.068h-1.316c-1.195 0-2.091.2613-2.688.784-.598.504-.896 1.4-.896 2.688V31h-4.788V15.376h4.788v2.604zm6.236 5.18c0-1.6053.299-3.0147.896-4.228.616-1.2133 1.447-2.1467 2.492-2.8 1.045-.6533 2.212-.98 3.5-.98 1.101 0 2.063.224 2.884.672.84.448 1.484 1.036 1.932 1.764v-2.212h4.788V31h-4.788v-2.212c-.467.728-1.12 1.316-1.96 1.764-.821.448-1.783.672-2.884.672-1.269 0-2.427-.3267-3.472-.98-1.045-.672-1.876-1.6147-2.492-2.828-.597-1.232-.896-2.6507-.896-4.256zm11.704.028c0-1.1947-.336-2.1373-1.008-2.828-.653-.6907-1.456-1.036-2.408-1.036s-1.764.3453-2.436 1.036c-.653.672-.98 1.6053-.98 2.8 0 1.1947.327 2.1467.98 2.856.672.6907 1.484 1.036 2.436 1.036s1.755-.3453 2.408-1.036c.672-.6907 1.008-1.6333 1.008-2.828zM42.4501 8.10537c3.7593 4.32133 4.3165 10.45083 3.3368 16.15393-.9145 5.3242-3.8443 9.9796-8.3173 12.8411-4.5364 2.9022-9.9911 3.7501-15.1027 2.1415-5.4885-1.7272-10.8048-5.2081-12.50777-10.8303-1.6717-5.5189 1.34147-11.0059 4.42917-15.8404 3.061-4.79256 6.7891-9.49314 12.3104-10.3687 5.8448-.92686 11.9143 1.37721 15.8514 5.90287z"/>
  <path fill="#CD10FF" d="M24.9824 9.38099c5.308.86651 9.9139 3.67221 12.7478 7.51741 2.7591 3.7436 3.0439 8.2504 2.0551 12.5676-1.0091 4.4054-3.0777 8.8004-7.5256 11.3169-4.505 2.5489-10.2072 2.5427-15.5655 1.7475-5.5618-.8253-11.41907-2.2606-14.50556-6.2099-3.083259-3.9451-2.430446-9.0239-.95307-13.57 1.37906-4.2435 4.37028-7.9246 8.73735-10.3833C14.4057 9.87156 19.735 8.52439 24.9824 9.38099z"/>
  <mask id="a" width="38" height="39" x="9" y="2" maskUnits="userSpaceOnUse">
    <path fill="#FF2C62" d="M42.4501 8.10537c3.7593 4.32133 4.3165 10.45083 3.3368 16.15393-.9145 5.3242-3.8443 9.9796-8.3173 12.8411-4.5364 2.9022-9.9911 3.7501-15.1027 2.1415-5.4885-1.7272-10.8048-5.2081-12.50777-10.8303-1.6717-5.5189 1.34147-11.0059 4.42917-15.8404 3.061-4.79256 6.7891-9.49314 12.3104-10.3687 5.8448-.92686 11.9143 1.37721 15.8514 5.90287z"/>
  </mask>
  <g mask="url(#a)">
    <path fill="url(#paint0_linear)" d="M24.9824 9.38099c5.308.86651 9.9139 3.67221 12.7478 7.51741 2.7591 3.7436 3.0439 8.2504 2.0551 12.5676-1.0091 4.4054-3.0777 8.8004-7.5256 11.3169-4.505 2.5489-10.2072 2.5427-15.5655 1.7475-5.5618-.8253-11.41907-2.2606-14.50556-6.2099-3.083259-3.9451-2.430446-9.0239-.95307-13.57 1.37906-4.2435 4.37028-7.9246 8.73735-10.3833C14.4057 9.87156 19.735 8.52439 24.9824 9.38099z"/>
  </g>
  <defs>
    <linearGradient id="paint0_linear" x1="20.1525" x2="20.1525" y1="9.12292" y2="43" gradientUnits="userSpaceOnUse">
      <stop stop-color="#FB6D3A" stop-opacity=".85"/>
      <stop offset="1" stop-color="#FB6D3A" stop-opacity=".11"/>
    </linearGradient>
  </defs>
</svg>
